{
  "exit_codes": [
    0
  ],
  "exit_message": {
    "expected_output": "Success\n",
    "op": "eq"
  },
  "inputs": {
    "optional": {},
    "required": {
      "indicator_type_1": "Email Address",
      "indicator_values": "#App:1234:email_addresses!StringArray",
      "owner": "${env:API_DEFAULT_ORG}",
      "tc_action": "Create Multiple"
    }
  },
  "outputs": {
    "#App:9876:tc.email_addresses!TCEntityArray": {
      "exclude_paths": [
        "id"
      ],
      "expected_output": [
        {
          "id": 2857,
          "type": "Email Address",
          "value": "testone@gmail.com"
        },
        {
          "id": 2858,
          "type": "Email Address",
          "value": "testtwo@gmail.com"
        }
      ],
      "op": "dd"
    },
    "#App:9876:tc.email_addresses.action!String": {
      "expected_output": "create multiple",
      "op": "eq"
    },
    "#App:9876:tc.email_addresses.address!StringArray": {
      "expected_output": [
        "testone@gmail.com",
        "testtwo@gmail.com"
      ],
      "op": "leq"
    },
    "#App:9876:tc.email_addresses.count!String": {
      "expected_output": "2",
      "op": "eq"
    },
    "#App:9876:tc.email_addresses.date_added!StringArray": {
      "expected_output": [
        "2020-04-04T18:04:12-04:00",
        "2020-04-04T18:04:12-04:00"
      ],
      "op": "is_date"
    },
    "#App:9876:tc.email_addresses.fail.count!String": {
      "expected_output": "0",
      "op": "eq"
    },
    "#App:9876:tc.email_addresses.id!StringArray": {
      "expected_output": [
        "2857",
        "2858"
      ],
      "op": "is_number"
    },
    "#App:9876:tc.email_addresses.json.raw!String": {
      "exclude": [
        "data.emailAddress.id",
        "data.emailAddress.dateAdded",
        "data.emailAddress.lastModified",
        "data.emailAddress.owner",
        "data.emailAddress.attribute",
        "data.emailAddress"
      ],
      "expected_output": "[{\"status\": \"Success\", \"data\": {\"emailAddress\": {\"id\": 2857, \"owner\": {\"id\": 1, \"name\": \"TCI\", \"type\": \"Organization\"}, \"dateAdded\": \"2020-04-04T18:04:12-04:00\", \"lastModified\": \"2020-04-04T18:04:26-04:00\", \"webLink\": \"https://app-dev.tci.ninja/auth/indicators/details/emailaddress.xhtml?emailaddress=testone%40gmail.com&owner=TCI\", \"address\": \"testone@gmail.com\"}}}, {\"status\": \"Success\", \"data\": {\"emailAddress\": {\"id\": 2858, \"owner\": {\"id\": 1, \"name\": \"TCI\", \"type\": \"Organization\"}, \"dateAdded\": \"2020-04-04T18:04:12-04:00\", \"lastModified\": \"2020-04-04T18:04:26-04:00\", \"webLink\": \"https://app-dev.tci.ninja/auth/indicators/details/emailaddress.xhtml?emailaddress=testtwo%40gmail.com&owner=TCI\", \"address\": \"testtwo@gmail.com\"}}}]",
      "op": "jeq"
    },
    "#App:9876:tc.email_addresses.last_modified!StringArray": {
      "expected_output": [
        "2020-04-04T18:04:26-04:00",
        "2020-04-04T18:04:26-04:00"
      ],
      "op": "is_date"
    },
    "#App:9876:tc.email_addresses.success.count!String": {
      "expected_output": "2",
      "op": "eq"
    },
    "#App:9876:tc.email_addresses.web_link!StringArray": {
      "expected_output": [
        "https://app-dev.tci.ninja/auth/indicators/details/emailaddress.xhtml?emailaddress=testone%40gmail.com&owner=TCI",
        "https://app-dev.tci.ninja/auth/indicators/details/emailaddress.xhtml?emailaddress=testtwo%40gmail.com&owner=TCI"
      ],
      "op": "leq"
    }
  },
  "stage": {
    "kvstore": {
      "#App:1234:email_addresses!StringArray": [
        "testone@gmail.com",
        "testtwo@gmail.com"
      ]
    }
  }
}
