{
  "exit_codes": [
    0
  ],
  "exit_message": {
    "expected_output": "Success\n",
    "op": "eq"
  },
  "inputs": {
    "optional": {},
    "required": {
      "indicator_type_1": "ASN",
      "indicator_values": "#App:1234:asns!StringArray",
      "owner": "${env:API_DEFAULT_ORG}",
      "tc_action": "Create Multiple"
    }
  },
  "outputs": {
    "#App:9876:tc.asns!TCEntityArray": {
      "exclude_paths": [
        "id"
      ],
      "expected_output": [
        {
          "id": 1154,
          "type": "ASN",
          "value": "ASN1230"
        },
        {
          "id": 1155,
          "type": "ASN",
          "value": "ASN1231"
        }
      ],
      "op": "dd"
    },
    "#App:9876:tc.asns.action!String": {
      "expected_output": "create multiple",
      "op": "eq"
    },
    "#App:9876:tc.asns.as_number!StringArray": {
      "expected_output": [
        "ASN1230",
        "ASN1231"
      ],
      "op": "leq"
    },
    "#App:9876:tc.asns.count!String": {
      "expected_output": "2",
      "op": "eq"
    },
    "#App:9876:tc.asns.date_added!StringArray": {
      "expected_output": [
        "2020-04-02T15:07:46-04:00",
        "2020-04-02T15:07:46-04:00"
      ],
      "op": "is_date"
    },
    "#App:9876:tc.asns.fail.count!String": {
      "expected_output": "0",
      "op": "eq"
    },
    "#App:9876:tc.asns.id!StringArray": {
      "expected_output": [
        "1154",
        "1155"
      ],
      "op": "is_number"
    },
    "#App:9876:tc.asns.json.raw!String": {
      "exclude": [
        "data.asn.id",
        "data.asn.owner",
        "data.asn.dateAdded",
        "data.asn.lastModified",
        "data.asn.threatAssessConfidence",
        "data.asn.threatAssessRating",
        "data.asn.webLink"
      ],
      "expected_output": "[{\"status\": \"Success\", \"data\": {\"asn\": {\"id\": 1154, \"owner\": {\"id\": 1, \"name\": \"TCI\", \"type\": \"Organization\"}, \"type\": \"ASN\", \"dateAdded\": \"2020-04-02T15:07:46-04:00\", \"lastModified\": \"2020-04-02T15:08:48-04:00\", \"webLink\": \"https://app-dev.tci.ninja/auth/indicators/details/customIndicator.xhtml?id=1154&owner=TCI\", \"AS Number\": \"ASN1230\"}}}, {\"status\": \"Success\", \"data\": {\"asn\": {\"id\": 1155, \"owner\": {\"id\": 1, \"name\": \"TCI\", \"type\": \"Organization\"}, \"type\": \"ASN\", \"dateAdded\": \"2020-04-02T15:07:46-04:00\", \"lastModified\": \"2020-04-02T15:08:48-04:00\", \"webLink\": \"https://app-dev.tci.ninja/auth/indicators/details/customIndicator.xhtml?id=1155&owner=TCI\", \"AS Number\": \"ASN1231\"}}}]",
      "op": "jeq"
    },
    "#App:9876:tc.asns.last_modified!StringArray": {
      "expected_output": [
        "2020-04-02T15:08:48-04:00",
        "2020-04-02T15:08:48-04:00"
      ],
      "op": "is_date"
    },
    "#App:9876:tc.asns.success.count!String": {
      "expected_output": "2",
      "op": "eq"
    },
    "#App:9876:tc.asns.web_link!StringArray": {
      "expected_output": [
        "https://app-dev.tci.ninja/auth/indicators/details/customIndicator.xhtml?id=1154&owner=TCI",
        "https://app-dev.tci.ninja/auth/indicators/details/customIndicator.xhtml?id=1155&owner=TCI"
      ],
      "op": "leq"
    }
  },
  "stage": {
    "kvstore": {
      "#App:1234:asns!StringArray": [
        "ASN1230",
        "ASN1231"
      ]
    }
  }
}
