{
  "exit_codes": [
    0
  ],
  "exit_message": {
    "expected_output": "Success\n",
    "op": "eq"
  },
  "inputs": {
    "optional": {},
    "required": {
      "indicator_type_1": "ASN",
      "indicator_value": "ASN1232",
      "owner": "${env:API_DEFAULT_ORG}",
      "tc_action": "Create"
    }
  },
  "outputs": {
    "#App:9876:tc.asn!TCEntity": {
      "exclude_paths": [
        "id"
      ],
      "expected_output": {
        "id": 3,
        "type": "ASN",
        "value": "ASN1232"
      },
      "op": "dd"
    },
    "#App:9876:tc.asn.action!String": {
      "expected_output": "create",
      "op": "eq"
    },
    "#App:9876:tc.asn.as_number!String": {
      "expected_output": "ASN1232",
      "op": "eq"
    },
    "#App:9876:tc.asn.count!String": {
      "expected_output": "1",
      "op": "eq"
    },
    "#App:9876:tc.asn.date_added!String": {
      "expected_output": "2019-11-21T14:02:15-05:00",
      "op": "is_date"
    },
    "#App:9876:tc.asn.fail.count!String": {
      "expected_output": "0",
      "op": "eq"
    },
    "#App:9876:tc.asn.id!String": {
      "expected_output": "3",
      "op": "is_number"
    },
    "#App:9876:tc.asn.json.raw!String": {
      "exclude": [
        "data.asn.id",
        "data.asn.owner",
        "data.asn.dateAdded",
        "data.asn.lastModified",
        "data.asn.threatAssessConfidence",
        "data.asn.threatAssessRating",
        "data.asn"
      ],
      "expected_output": "{\"status\": \"Success\", \"data\": {\"asn\": {\"id\": 3, \"owner\": {\"id\": 1, \"name\": \"TCI\", \"type\": \"Organization\"}, \"type\": \"ASN\", \"dateAdded\": \"2019-11-21T14:02:15-05:00\", \"lastModified\": \"2020-04-01T13:20:45-04:00\", \"webLink\": \"https://app-dev.tci.ninja/auth/indicators/details/customIndicator.xhtml?id=3&owner=TCI\", \"AS Number\": \"ASN1232\", \"threatAssessRating\": 0.0, \"threatAssessConfidence\": 0.0}}}",
      "op": "jeq"
    },
    "#App:9876:tc.asn.last_modified!String": {
      "expected_output": "2020-04-01T13:20:45-04:00",
      "op": "is_date"
    },
    "#App:9876:tc.asn.success.count!String": {
      "expected_output": "1",
      "op": "eq"
    },
    "#App:9876:tc.asn.web_link!String": {
      "expected_output": null,
      "op": "ne"
    }
  },
  "stage": {
    "kvstore": {}
  }
}
