{
  "package": {
    "app_name": "TCPB_-_Threatconnect_Indicators",
    "excludes": [
      "*.install.json",
      ".gitignore",
      ".pre-commit-config.yaml",
      "local-*",
      "pyproject.toml",
      "setup.cfg",
      "tcex.d",
      "tcex.json"
    ],
    "outdir": "target"
  },
  "template": "playbook_actions"
}
