{
  "exit_codes": [
    0
  ],
  "exit_message": {
    "expected_output": "Success\n",
    "op": "eq"
  },
  "inputs": {
    "optional": {},
    "required": {
      "dns_active": "true",
      "indicator_type_1": "URL",
      "indicator_values": "#App:1234:urls!StringArray",
      "owner": "${env:API_DEFAULT_ORG}",
      "tc_action": "Create Multiple",
      "whois_active": "true"
    }
  },
  "outputs": {
    "#App:9876:tc.urls!TCEntityArray": {
      "exclude_paths": [
        "id"
      ],
      "expected_output": [
        {
          "id": 1272,
          "type": "URL",
          "value": "https://app.highspot.com/brand/img/"
        },
        {
          "id": 1273,
          "type": "URL",
          "value": "https://app.highspot2.com/brand/img/"
        }
      ],
      "op": "dd"
    },
    "#App:9876:tc.urls.action!String": {
      "expected_output": "create multiple",
      "op": "eq"
    },
    "#App:9876:tc.urls.count!String": {
      "expected_output": "2",
      "op": "eq"
    },
    "#App:9876:tc.urls.date_added!StringArray": {
      "expected_output": [
        "2020-04-02T15:34:19-04:00",
        "2020-04-02T15:34:19-04:00"
      ],
      "op": "is_date"
    },
    "#App:9876:tc.urls.fail.count!String": {
      "expected_output": "0",
      "op": "eq"
    },
    "#App:9876:tc.urls.id!StringArray": {
      "expected_output": [
        "1272",
        "1273"
      ],
      "op": "is_number"
    },
    "#App:9876:tc.urls.json.raw!String": {
      "exclude": [
        "data.url.id",
        "data.url.owner",
        "data.url.dateAdded",
        "data.url.lastModified",
        "data.url.tag",
        "data.url.webLink",
        "data.url.attribute",
        "data.url.threatAssessConfidence",
        "data.url.threatAssessRating",
        "data.url.securityLabel"
      ],
      "expected_output": "[{\"status\": \"Success\", \"data\": {\"url\": {\"id\": 1272, \"owner\": {\"id\": 1, \"name\": \"TCI\", \"type\": \"Organization\"}, \"dateAdded\": \"2020-04-02T15:34:19-04:00\", \"lastModified\": \"2020-04-02T15:34:19-04:00\", \"webLink\": \"https://app-dev.tci.ninja/auth/indicators/details/url.xhtml?orgid=1272&owner=TCI\", \"text\": \"https://app.highspot.com/brand/img/\"}}}, {\"status\": \"Success\", \"data\": {\"url\": {\"id\": 1273, \"owner\": {\"id\": 1, \"name\": \"TCI\", \"type\": \"Organization\"}, \"dateAdded\": \"2020-04-02T15:34:19-04:00\", \"lastModified\": \"2020-04-02T15:34:19-04:00\", \"webLink\": \"https://app-dev.tci.ninja/auth/indicators/details/url.xhtml?orgid=1273&owner=TCI\", \"text\": \"https://app.highspot2.com/brand/img/\"}}}]",
      "op": "jeq"
    },
    "#App:9876:tc.urls.last_modified!StringArray": {
      "expected_output": [
        "2020-04-02T15:34:19-04:00",
        "2020-04-02T15:34:19-04:00"
      ],
      "op": "is_date"
    },
    "#App:9876:tc.urls.success.count!String": {
      "expected_output": "2",
      "op": "eq"
    },
    "#App:9876:tc.urls.text!StringArray": {
      "expected_output": [
        "https://app.highspot.com/brand/img/",
        "https://app.highspot2.com/brand/img/"
      ],
      "op": "leq"
    },
    "#App:9876:tc.urls.web_link!StringArray": {
      "expected_output": [
        "https://app-dev.tci.ninja/auth/indicators/details/url.xhtml?orgid=1272&owner=TCI",
        "https://app-dev.tci.ninja/auth/indicators/details/url.xhtml?orgid=1273&owner=TCI"
      ],
      "op": "leq"
    }
  },
  "stage": {
    "kvstore": {
      "#App:1234:urls!StringArray": [
        "https://app.highspot.com/brand/img/",
        "https://app.highspot2.com/brand/img/"
      ]
    }
  }
}
