{
  "exit_codes": [
    0
  ],
  "exit_message": {
    "expected_output": "Success\n",
    "op": "eq"
  },
  "inputs": {
    "optional": {},
    "required": {
      "delete_by": "Value",
      "indicator_type_1": "URL",
      "indicator_value": "https://app.highspot6.com/brand/img/",
      "owner": "${env:API_DEFAULT_ORG}",
      "tc_action": "Delete"
    }
  },
  "outputs": {
    "#App:9876:tc.url.action!String": {
      "expected_output": "delete",
      "op": "eq"
    },
    "#App:9876:tc.url.count!String": {
      "expected_output": "1",
      "op": "eq"
    },
    "#App:9876:tc.url.fail.count!String": {
      "expected_output": "0",
      "op": "eq"
    },
    "#App:9876:tc.url.json.raw!String": {
      "exclude": [],
      "expected_output": "{\"status\": \"Success\"}",
      "op": "jeq"
    },
    "#App:9876:tc.url.success.count!String": {
      "expected_output": "1",
      "op": "eq"
    }
  },
  "stage": {
    "kvstore": {},
    "threatconnect": {
      "url": {
        "tag": [
          "bp_pytest"
        ],
        "text": "https://app.highspot6.com/brand/img/",
        "type": "URL"
      }
    }
  }
}
