{
  "exit_codes": [
    0
  ],
  "exit_message": {
    "expected_output": "Success\n",
    "op": "eq"
  },
  "inputs": {
    "optional": {},
    "required": {
      "dns_active": "true",
      "indicator_type_1": "Address",
      "indicator_values": "#App:1234:ips!StringArray",
      "owner": "${env:API_DEFAULT_ORG}",
      "tc_action": "Create Multiple",
      "whois_active": "true"
    }
  },
  "outputs": {
    "#App:9876:tc.addresses!TCEntityArray": {
      "expected_output": null,
      "op": "ne"
    },
    "#App:9876:tc.addresses.action!String": {
      "expected_output": "create multiple",
      "op": "eq"
    },
    "#App:9876:tc.addresses.count!String": {
      "expected_output": "2",
      "op": "eq"
    },
    "#App:9876:tc.addresses.date_added!StringArray": {
      "expected_output": [
        "2020-03-31T18:30:05-04:00",
        "2020-03-31T16:19:14-04:00"
      ],
      "op": "is_date"
    },
    "#App:9876:tc.addresses.fail.count!String": {
      "expected_output": "0",
      "op": "eq"
    },
    "#App:9876:tc.addresses.id!StringArray": {
      "expected_output": [
        "793",
        "719"
      ],
      "op": "is_number"
    },
    "#App:9876:tc.addresses.ip!StringArray": {
      "expected_output": [
        "11.22.33.40",
        "11.22.33.41"
      ],
      "ignore_order": false,
      "op": "jeq"
    },
    "#App:9876:tc.addresses.json.raw!String": {
      "exclude": [
        "data.address.id",
        "data.address.dateAdded",
        "data.address.lastModified",
        "data.address.owner",
        "data.address.threatAssessRating",
        "data.address.threatAssessConfidence",
        "data.address.webLink"
      ],
      "expected_output": "[{\"status\": \"Success\", \"data\": {\"address\": {\"id\": 793, \"owner\": {\"id\": 1, \"name\": \"TCI\", \"type\": \"Organization\"}, \"dateAdded\": \"2020-03-31T18:30:05-04:00\", \"lastModified\": \"2020-04-02T14:17:18-04:00\", \"webLink\": \"https://app-dev.tci.ninja/auth/indicators/details/address.xhtml?address=11.22.33.40&owner=TCI\", \"ip\": \"11.22.33.40\"}}}, {\"status\": \"Success\", \"data\": {\"address\": {\"id\": 719, \"owner\": {\"id\": 1, \"name\": \"TCI\", \"type\": \"Organization\"}, \"dateAdded\": \"2020-03-31T16:19:14-04:00\", \"lastModified\": \"2020-04-02T14:17:18-04:00\", \"webLink\": \"https://app-dev.tci.ninja/auth/indicators/details/address.xhtml?address=11.22.33.41&owner=TCI\", \"ip\": \"11.22.33.41\"}}}]",
      "op": "jeq"
    },
    "#App:9876:tc.addresses.last_modified!StringArray": {
      "expected_output": [
        "2020-04-02T14:17:18-04:00",
        "2020-04-02T14:17:18-04:00"
      ],
      "op": "is_date"
    },
    "#App:9876:tc.addresses.success.count!String": {
      "expected_output": "2",
      "op": "eq"
    },
    "#App:9876:tc.addresses.web_link!StringArray": {
      "expected_output": [
        "https://app-dev.tci.ninja/auth/indicators/details/address.xhtml?address=11.22.33.40&owner=TCI",
        "https://app-dev.tci.ninja/auth/indicators/details/address.xhtml?address=11.22.33.41&owner=TCI"
      ],
      "op": "leq"
    }
  },
  "stage": {
    "kvstore": {
      "#App:1234:ips!StringArray": [
        "11.22.33.40",
        "11.22.33.41"
      ]
    }
  }
}
