{
  "exit_codes": [
    0
  ],
  "exit_message": {
    "expected_output": "Success\n",
    "op": "eq"
  },
  "inputs": {
    "optional": {},
    "required": {
      "delete_by": "Tag",
      "indicator_tag": "bp_pytest_new",
      "indicator_type": "Address",
      "owner": "${env:API_DEFAULT_ORG}",
      "tc_action": "Delete"
    }
  },
  "outputs": {
    "#App:9876:tc.addresses.action!String": {
      "expected_output": "delete",
      "op": "eq"
    },
    "#App:9876:tc.addresses.count!String": {
      "expected_output": "1",
      "op": "eq"
    },
    "#App:9876:tc.addresses.fail.count!String": {
      "expected_output": "0",
      "op": "eq"
    },
    "#App:9876:tc.addresses.json.raw!String": {
      "exclude": [],
      "expected_output": "[{\"status\": \"Success\"}]",
      "op": "jeq"
    },
    "#App:9876:tc.addresses.success.count!String": {
      "expected_output": "1",
      "op": "eq"
    }
  },
  "stage": {
    "kvstore": {},
    "threatconnect": {
      "address": {
        "ip": "11.22.33.44",
        "tag": [
          "bp_pytest_new"
        ],
        "type": "Address"
      }
    }
  }
}
