{
  "exit_codes": [
    0
  ],
  "exit_message": {
    "expected_output": "Success\n",
    "op": "eq"
  },
  "inputs": {
    "optional": {},
    "required": {
      "delete_by": "Entity",
      "indicator_entity": "#App:1234:indicator_entity!TCEntity",
      "owner": "${env:API_DEFAULT_ORG}",
      "tc_action": "Delete"
    }
  },
  "outputs": {
    "#App:9876:tc.indicator.action!String": {
      "expected_output": "delete",
      "op": "eq"
    },
    "#App:9876:tc.indicator.count!String": {
      "expected_output": "1",
      "op": "eq"
    },
    "#App:9876:tc.indicator.fail.count!String": {
      "expected_output": "0",
      "op": "eq"
    },
    "#App:9876:tc.indicator.json.raw!String": {
      "exclude": [],
      "expected_output": "{\"status\": \"Success\"}",
      "op": "jeq"
    },
    "#App:9876:tc.indicator.success.count!String": {
      "expected_output": "1",
      "op": "eq"
    }
  },
  "stage": {
    "kvstore": {
      "#App:1234:indicator_entity!TCEntity": {
        "id": null,
        "type": "Address",
        "value": "11.22.33.43"
      }
    },
    "threatconnect": {
      "address": {
        "ip": "11.22.33.43",
        "tag": [
          "bp_pytest"
        ],
        "type": "Address"
      }
    }
  }
}
