{
  "exit_codes": [
    0
  ],
  "exit_message": {
    "expected_output": "Success\n",
    "op": "eq"
  },
  "inputs": {
    "optional": {},
    "required": {
      "delete_by": "Tag",
      "indicator_tag": "bp_pytest_new",
      "indicator_type": "Host",
      "owner": "${env:API_DEFAULT_ORG}",
      "tc_action": "Delete"
    }
  },
  "outputs": {
    "#App:9876:tc.hosts.action!String": {
      "expected_output": "delete",
      "op": "eq"
    },
    "#App:9876:tc.hosts.count!String": {
      "expected_output": "1",
      "op": "eq"
    },
    "#App:9876:tc.hosts.fail.count!String": {
      "expected_output": "0",
      "op": "eq"
    },
    "#App:9876:tc.hosts.json.raw!String": {
      "exclude": [],
      "expected_output": "[{\"status\": \"Success\"}]",
      "op": "jeq"
    },
    "#App:9876:tc.hosts.success.count!String": {
      "expected_output": "1",
      "op": "eq"
    }
  },
  "stage": {
    "kvstore": {},
    "threatconnect": {
      "host": {
        "hostname": "highspot5.com",
        "tag": [
          "bp_pytest_new"
        ],
        "type": "Host"
      }
    }
  }
}
