{
  "exit_codes": [
    0
  ],
  "exit_message": {
    "expected_output": "Success\n",
    "op": "eq"
  },
  "inputs": {
    "optional": {},
    "required": {
      "dns_active": "False",
      "get_by": "Value",
      "indicator_entity_or_value": "hipot.com",
      "indicator_type_1": "Host",
      "owner": "${env:API_DEFAULT_ORG}",
      "tc_action": "Update"
    }
  },
  "outputs": {
    "#App:9876:tc.host!TCEntity": {
      "expected_output": null,
      "op": "eq"
    },
    "#App:9876:tc.host.action!String": {
      "expected_output": "update",
      "op": "eq"
    },
    "#App:9876:tc.host.count!String": {
      "expected_output": "1",
      "op": "eq"
    },
    "#App:9876:tc.host.date_added!String": {
      "expected_output": null,
      "op": "eq"
    },
    "#App:9876:tc.host.dns_active!String": {
      "expected_output": null,
      "op": "eq"
    },
    "#App:9876:tc.host.fail.count!String": {
      "expected_output": "1",
      "op": "eq"
    },
    "#App:9876:tc.host.host_name!String": {
      "expected_output": null,
      "op": "eq"
    },
    "#App:9876:tc.host.id!String": {
      "expected_output": null,
      "op": "eq"
    },
    "#App:9876:tc.host.json.raw!String": {
      "exclude": [],
      "expected_output": "{\"status\": \"Failure\", \"message\": \"The requested resource was not found\"}",
      "op": "jeq"
    },
    "#App:9876:tc.host.last_modified!String": {
      "expected_output": null,
      "op": "eq"
    },
    "#App:9876:tc.host.success.count!String": {
      "expected_output": "0",
      "op": "eq"
    },
    "#App:9876:tc.host.web_link!String": {
      "expected_output": null,
      "op": "eq"
    },
    "#App:9876:tc.host.whois_active!String": {
      "expected_output": null,
      "op": "eq"
    }
  },
  "stage": {
    "kvstore": {}
  }
}
