{
  "exit_codes": [
    1
  ],
  "exit_message": {
    "expected_output": "No Results\n",
    "op": "eq"
  },
  "inputs": {
    "required": {
      "associated_to": "#App:1234:empty!TCEntity",
      "delete_by": "Association",
      "fail_on_no_results": true,
      "owner": "${env:API_DEFAULT_ORG}",
      "tc_action": "Delete"
    }
  },
  "outputs": {}
}
