{
  "exit_codes": [
    1
  ],
  "exit_message": {
    "expected_output": "No Results\n",
    "op": "eq"
  },
  "inputs": {
    "required": {
      "delete_by": "Value",
      "fail_on_no_results": true,
      "indicator_value": "#App:1234:null!String",
      "owner": "${env:API_DEFAULT_ORG}",
      "tc_action": "Address"
    }
  },
  "outputs": {}
}
