{
  "exit_codes": [
    1
  ],
  "exit_message": {
    "expected_output": "No Results\n",
    "op": "eq"
  },
  "inputs": {
    "required": {
      "delete_by": "Tag",
      "fail_on_no_results": true,
      "indicator_tag": "Does not Exist",
      "indicator_type": "Address",
      "owner": "${env:API_DEFAULT_ORG}",
      "tc_action": "Delete"
    }
  },
  "outputs": {
    "#App:9876:tc.addresses.action!String": {
      "expected_output": null,
      "op": "eq"
    },
    "#App:9876:tc.addresses.count!String": {
      "expected_output": null,
      "op": "eq"
    },
    "#App:9876:tc.addresses.fail.count!String": {
      "expected_output": null,
      "op": "eq"
    },
    "#App:9876:tc.addresses.json.raw!String": {
      "exclude": [],
      "expected_output": null,
      "op": "jeq"
    },
    "#App:9876:tc.addresses.success.count!String": {
      "expected_output": null,
      "op": "eq"
    }
  }
}
