{
  "exit_codes": [
    0
  ],
  "exit_message": {
    "expected_output": "Success\n",
    "op": "eq"
  },
  "inputs": {
    "optional": {},
    "required": {
      "get_by": "Entity",
      "indicator_entity": "#App:1234:indicator_entity!TCEntity",
      "owner": "${env:API_DEFAULT_ORG}",
      "tc_action": "Get"
    }
  },
  "outputs": {
    "#App:9876:tc.indicator!TCEntity": {
      "exclude_paths": [
        "id"
      ],
      "expected_output": {
        "id": 1385,
        "type": "Mutex",
        "value": "bp_mutex_7"
      },
      "op": "dd"
    },
    "#App:9876:tc.indicator.action!String": {
      "expected_output": "get",
      "op": "eq"
    },
    "#App:9876:tc.indicator.active!String": {
      "expected_output": "true",
      "op": "eq"
    },
    "#App:9876:tc.indicator.active_locked!String": {
      "expected_output": "false",
      "op": "eq"
    },
    "#App:9876:tc.indicator.confidence!String": {
      "expected_output": null,
      "op": "eq"
    },
    "#App:9876:tc.indicator.count!String": {
      "expected_output": "1",
      "op": "eq"
    },
    "#App:9876:tc.indicator.date_added!String": {
      "expected_output": "2020-04-02T15:51:34-04:00",
      "op": "is_date"
    },
    "#App:9876:tc.indicator.fail.count!String": {
      "expected_output": "0",
      "op": "eq"
    },
    "#App:9876:tc.indicator.false_positive_count!String": {
      "expected_output": null,
      "op": "eq"
    },
    "#App:9876:tc.indicator.false_positive_last_reported!String": {
      "expected_output": null,
      "op": "eq"
    },
    "#App:9876:tc.indicator.id!String": {
      "expected_output": "1385",
      "op": "is_number"
    },
    "#App:9876:tc.indicator.json.raw!String": {
      "exclude": [
        "data.mutex.id",
        "data.mutex.owner",
        "data.mutex.dateAdded",
        "data.mutex.lastModified",
        "data.mutex.tag",
        "data.mutex.webLink",
        "data.mutex.attribute",
        "data.mutex.securityLabel"
      ],
      "expected_output": "{\"status\": \"Success\", \"data\": {\"mutex\": {\"id\": 1385, \"owner\": {\"id\": 1, \"name\": \"TCI\", \"type\": \"Organization\"}, \"type\": \"Mutex\", \"dateAdded\": \"2020-04-02T15:51:34-04:00\", \"lastModified\": \"2020-04-02T15:51:34-04:00\", \"webLink\": \"https://app-dev.tci.ninja/auth/indicators/details/customIndicator.xhtml?id=1385&owner=TCI\", \"privateFlag\": false, \"active\": true, \"activeLocked\": false, \"Mutex\": \"bp_mutex_7\", \"tag\": [{\"name\": \"bp_pytest\", \"webLink\": \"https://app-dev.tci.ninja/auth/tags/tag.xhtml?tag=bp_pytest&owner=TCI\"}]}}}",
      "op": "jeq"
    },
    "#App:9876:tc.indicator.last_modified!String": {
      "expected_output": "2020-04-02T15:51:34-04:00",
      "op": "is_date"
    },
    "#App:9876:tc.indicator.last_observed!String": {
      "expected_output": null,
      "op": "eq"
    },
    "#App:9876:tc.indicator.observation_count!String": {
      "expected_output": null,
      "op": "eq"
    },
    "#App:9876:tc.indicator.owner_name!String": {
      "expected_output": "TCI",
      "op": "eq"
    },
    "#App:9876:tc.indicator.private_flag!String": {
      "expected_output": "false",
      "op": "eq"
    },
    "#App:9876:tc.indicator.rating!String": {
      "expected_output": null,
      "op": "eq"
    },
    "#App:9876:tc.indicator.source!String": {
      "expected_output": null,
      "op": "eq"
    },
    "#App:9876:tc.indicator.success.count!String": {
      "expected_output": "1",
      "op": "eq"
    },
    "#App:9876:tc.indicator.summary!String": {
      "expected_output": "bp_mutex_7",
      "op": "eq"
    },
    "#App:9876:tc.indicator.threat_assess_score!String": {
      "expected_output": null,
      "op": "eq"
    },
    "#App:9876:tc.indicator.web_link!String": {
      "expected_output": null,
      "op": "ne"
    }
  },
  "stage": {
    "kvstore": {
      "#App:1234:indicator_entity!TCEntity": {
        "id": null,
        "type": "Mutex",
        "value": "bp_mutex_7"
      }
    },
    "threatconnect": {
      "mutex": {
        "Mutex": "bp_mutex_7",
        "tag": [
          "bp_pytest"
        ],
        "type": "Mutex"
      }
    }
  }
}
