{
  "exit_codes": [
    0
  ],
  "exit_message": {
    "expected_output": "Success\n",
    "op": "eq"
  },
  "inputs": {
    "optional": {},
    "required": {
      "delete_by": "Tag",
      "indicator_tag": "bp_pytest_new",
      "indicator_type": "File",
      "owner": "${env:API_DEFAULT_ORG}",
      "tc_action": "Delete"
    }
  },
  "outputs": {
    "#App:9876:tc.files.action!String": {
      "expected_output": "delete",
      "op": "eq"
    },
    "#App:9876:tc.files.count!String": {
      "expected_output": "1",
      "op": "eq"
    },
    "#App:9876:tc.files.fail.count!String": {
      "expected_output": "0",
      "op": "eq"
    },
    "#App:9876:tc.files.json.raw!String": {
      "exclude": [],
      "expected_output": "[{\"status\": \"Success\"}]",
      "op": "jeq"
    },
    "#App:9876:tc.files.success.count!String": {
      "expected_output": "1",
      "op": "eq"
    }
  },
  "stage": {
    "kvstore": {},
    "threatconnect": {
      "file": {
        "md5": "9527559815c67e5f13a77adbf04db29c",
        "tag": [
          "bp_pytest_new"
        ],
        "type": "File"
      }
    }
  }
}
