[
  {
    "args": {
      "app": {
        "optional": {
          "attribute_one_to_many": "#App:0822:one_to_many_association!TCEntity",
          "attribute_one_to_one": "#App:0822:attributes!TCEntity",
          "confidence_rating": "#App:0822:confidence_ratings!StringArray",
          "label_one_to_many": "",
          "label_one_to_one": "#App:0822:labels!StringArray",
          "tag_one_to_many": "one_to_many_tag",
          "tag_one_to_one": "#App:0822:tags!StringArray",
          "threat_rating": "#App:0822:threat_ratings!StringArray"
        },
        "required": {
          "action": "Create",
          "associated_to": "",
          "get_by": "",
          "indicator_entity": "",
          "indicator_tag": "",
          "indicator_value": "#App:0822:url_names!StringArray",
          "owner": "TCI",
          "resource_name": "build_url-test-001",
          "tc_action": "Url",
          "value_name": "",
          "value_type": ""
        }
      },
      "default": {
        "api_access_id": "$env.API_ACCESS_ID",
        "api_default_org": "$env.API_DEFAULT_ORG",
        "api_secret_key": "$envs.API_SECRET_KEY",
        "tc_api_path": "$env.TC_API_PATH",
        "tc_docker": false,
        "tc_in_path": "log",
        "tc_log_level": "debug",
        "tc_log_path": "log",
        "tc_log_to_api": false,
        "tc_out_path": "log",
        "tc_playbook_db_context": "138afba4-6525-4a98-a9c2-9bc2b783281d",
        "tc_playbook_db_path": "$env.DB_PATH",
        "tc_playbook_db_port": "$env.DB_PORT",
        "tc_playbook_db_type": "Redis",
        "tc_playbook_out_variables": "#App:6002:tc.urls.0!String,#App:6002:tc.urls.attributes.0!KeyValueArray,#App:6002:tc.urls.attributes.0!KeyValueArray,#App:6002:tc.urls.attributes.0!KeyValueArray,#App:6002:tc.urls.confidences.0!String,#App:6002:tc.urls.date_added.dates.0!StringArray,#App:6002:tc.urls.descriptions.0!StringArray,#App:6002:tc.urls.false_positive.counts.0!StringArray,#App:6002:tc.urls.false_positive.last_reported.dates.0!StringArray,#App:6002:tc.urls.ip.0!String,#App:6002:tc.urls.last_modified.dates.0!StringArray,#App:6002:tc.urls.last_observed.dates.0!StringArray,#App:6002:tc.urls.observation.counts.0!StringArray,#App:6002:tc.urls.security_labels.0!StringArray,#App:6002:tc.urls.threat_assess_scores.0!StringArray,#App:6002:tc.urls.values.0!String,#App:6002:tc.urls.web_links.0!String,#App:6002:tc.urls.your_last_observed.dates.0!StringArray,#App:6002:tc.urls.your_observation.counts.0!StringArray,#App:6002:tc.urls.tags.0!StringArray,#App:6002:tc.urls.ratings.0!String,#App:6002:tc.urls!StringArray,#App:6002:tc.urls.confidences!StringArray,#App:6002:tc.urls.count!String,#App:6002:tc.urls.date_added.dates!StringArray,#App:6002:tc.urls.descriptions!StringArray,#App:6002:tc.urls.fail.count!String,#App:6002:tc.urls.false_positive.counts!StringArray,#App:6002:tc.urls.false_positive.last_reported.dates!StringArray,#App:6002:tc.urls.ip!StringArray,#App:6002:tc.urls.json!StringArray,#App:6002:tc.urls.last_modified.dates!StringArray,#App:6002:tc.urls.last_observed.dates!StringArray,#App:6002:tc.urls.observation.counts!StringArray,#App:6002:tc.urls.owner!StringArray,#App:6002:tc.urls.ratings!StringArray,#App:6002:tc.urls.success.count!String,#App:6002:tc.urls.threat_assess_scores!StringArray,#App:6002:tc.urls.values!StringArray,#App:6002:tc.urls.web_links!StringArray,#App:6002:tc.urls.your_last_observed.dates!StringArray,#App:6002:tc.urls.your_observation.counts!String",
        "tc_proxy_external": false,
        "tc_proxy_host": "$env.TC_PROXY_HOST",
        "tc_proxy_password": "$envs.TC_PROXY_PASSWORD",
        "tc_proxy_port": "$env.TC_PROXY_PORT",
        "tc_proxy_tc": false,
        "tc_proxy_username": "$env.TC_PROXY_USERNAME",
        "tc_temp_path": "log"
      }
    },
    "autoclear": true,
    "clear": [],
    "data_files": [
      "tcex.d/data/common.json"
    ],
    "description": "",
    "exit_codes": [
      0
    ],
    "groups": [
      "qa-build"
    ],
    "install_json": "install.json",
    "profile_name": "create_url",
    "quiet": false,
    "validations": [
      {
        "data": null,
        "data_type": "redis",
        "operator": "ne",
        "variable": "#App:6002:tc.urls.0!String"
      },
      {
        "data": "string",
        "data_type": "redis",
        "operator": "it",
        "variable": "#App:6002:tc.urls.0!String"
      },
      {
        "data": [
          null,
          []
        ],
        "data_type": "redis",
        "operator": "ni",
        "variable": "#App:6002:tc.urls!StringArray"
      },
      {
        "data": "array",
        "data_type": "redis",
        "operator": "it",
        "variable": "#App:6002:tc.urls!StringArray"
      },
      {
        "data": null,
        "data_type": "redis",
        "operator": "ne",
        "variable": "#App:6002:tc.urls.confidences.0!String"
      },
      {
        "data": "5.0",
        "data_type": "redis",
        "operator": "eq",
        "variable": "#App:6002:tc.urls.ratings.0!String"
      },
      {
        "data": [
          3.0,
          4.0,
          5.0
        ],
        "data_type": "redis",
        "operator": "eq",
        "variable": "#App:6002:tc.urls.ratings!StringArray"
      },
      {
        "data": "https://www.url_1.com",
        "data_type": "redis",
        "operator": "eq",
        "variable": "#App:6002:tc.urls.values.0!String"
      },
      {
        "data": [
          "https://www.url_1.com",
          "https://www.url_2.com",
          "https://www.url_3.com"
        ],
        "data_type": "redis",
        "operator": "eq",
        "variable": "#App:6002:tc.urls.values!StringArray"
      },
      {
        "data": "array",
        "data_type": "redis",
        "operator": "it",
        "variable": "#App:6002:tc.urls.descriptions.0!StringArray"
      },
      {
        "data": "array",
        "data_type": "redis",
        "operator": "it",
        "variable": "#App:6002:tc.urls.descriptions!StringArray"
      },
      {
        "data": 25,
        "data_type": "redis",
        "operator": "eq",
        "variable": "#App:6002:tc.urls.confidences.0!String"
      },
      {
        "data": [
          25,
          50,
          75
        ],
        "data_type": "redis",
        "operator": "eq",
        "variable": "#App:6002:tc.urls.confidences!StringArray"
      },
      {
        "data": "3",
        "data_type": "redis",
        "operator": "eq",
        "variable": "#App:6002:tc.urls.count!String"
      },
      {
        "data": "0",
        "data_type": "redis",
        "operator": "eq",
        "variable": "#App:6002:tc.urls.fail.count!String"
      },
      {
        "data": "3",
        "data_type": "redis",
        "operator": "eq",
        "variable": "#App:6002:tc.urls.success.count!String"
      },
      {
        "data": "3",
        "data_type": "redis",
        "operator": "eq",
        "variable": "#App:6002:tc.urls.success.count!String"
      },
      {
        "data": [
          null,
          []
        ],
        "data_type": "redis",
        "operator": "ne",
        "variable": "#App:6002:tc.urls.threat_assess_scores!StringArray"
      },
      {
        "data": "array",
        "data_type": "redis",
        "operator": "it",
        "variable": "#App:6002:tc.urls.threat_assess_scores!StringArray"
      },
      {
        "data": null,
        "data_type": "redis",
        "operator": "ne",
        "variable": "#App:6002:tc.urls.json!StringArray"
      },
      {
        "data": "array",
        "data_type": "redis",
        "operator": "it",
        "variable": "#App:6002:tc.urls.json!StringArray"
      },
      {
        "data": null,
        "data_type": "redis",
        "operator": "ne",
        "variable": "#App:6002:tc.urls.web_links.0!String"
      },
      {
        "data": "string",
        "data_type": "redis",
        "operator": "it",
        "variable": "#App:6002:tc.urls.web_links.0!String"
      },
      {
        "data": [
          null,
          []
        ],
        "data_type": "redis",
        "operator": "ni",
        "variable": "#App:6002:tc.urls.web_links!StringArray"
      },
      {
        "data": "array",
        "data_type": "redis",
        "operator": "it",
        "variable": "#App:6002:tc.urls.web_links!StringArray"
      },
      {
        "data": [
          null,
          []
        ],
        "data_type": "redis",
        "operator": "ni",
        "variable": "#App:6002:tc.urls.attributes.0!KeyValueArray"
      },
      {
        "data": "array",
        "data_type": "redis",
        "operator": "it",
        "variable": "#App:6002:tc.urls.attributes.0!KeyValueArray"
      },
      {
        "data": "array",
        "data_type": "redis",
        "operator": "it",
        "variable": "#App:6002:tc.urls.security_labels.0!StringArray"
      },
      {
        "data": [
          "TLP:AMBER"
        ],
        "data_type": "redis",
        "operator": "eq",
        "variable": "#App:6002:tc.urls.security_labels.0!StringArray"
      },
      {
        "data": [
          "one_to_many_tag",
          "tag_1"
        ],
        "data_type": "redis",
        "operator": "eq",
        "variable": "#App:6002:tc.urls.tags.0!StringArray"
      },
      {
        "data": "array",
        "data_type": "redis",
        "operator": "it",
        "variable": "#App:6002:tc.urls.tags.0!StringArray"
      }
    ]
  }
]
